Parte B/simulation/qsim/Lab2_B.msim.vcd
$comment
	File created using the following command:
		vcd file Lab2_B.msim.vcd -direction
$end
$date
	Fri Nov 18 16:53:28 2022
$end
$version
	ModelSim Version 10.1d
$end
$timescale
	1ps
$end
$scope module FULL_ADDER_vlg_vec_tst $end
$var reg 1 ! clk $end
$var reg 1 " in_a $end
$var reg 1 # in_b $end
$var reg 1 $ in_cin $end
$var wire 1 % o_cout $end
$var wire 1 & o_f $end
$var wire 1 ' sampler $end
$scope module i1 $end
$var wire 1 ( gnd $end
$var wire 1 ) vcc $end
$var wire 1 * unknown $end
$var tri1 1 + devclrn $end
$var tri1 1 , devpor $end
$var tri1 1 - devoe $end
$var wire 1 . D2|Q~q $end
$var wire 1 / in_b~input_o $end
$var wire 1 0 o_f~output_o $end
$var wire 1 1 o_cout~output_o $end
$var wire 1 2 clk~input_o $end
$var wire 1 3 in_a~input_o $end
$var wire 1 4 D1|Q~feeder_combout $end
$var wire 1 5 D1|Q~q $end
$var wire 1 6 in_cin~input_o $end
$var wire 1 7 D3|Q~feeder_combout $end
$var wire 1 8 D3|Q~q $end
$var wire 1 9 f~0_combout $end
$var wire 1 : D5|Q~q $end
$var wire 1 ; cout~0_combout $end
$var wire 1 < D4|Q~q $end
$upscope $end
$upscope $end
$enddefinitions $end
#0
$dumpvars
0!
0"
0#
0$
0%
0&
x'
0(
1)
x*
1+
1,
1-
0.
0/
00
01
02
03
04
05
06
07
08
09
0:
0;
0<
$end
#12500
1!
12
0'
#25000
1$
0!
16
02
1'
17
#37500
1!
12
0'
18
19
#50000
1#
0$
0!
1/
06
02
1'
07
#62500
1!
12
0'
08
1.
1:
10
1&
#75000
1$
0!
16
02
1'
17
#87500
1!
12
0'
18
1;
09
#100000
1"
0#
0$
0!
13
0/
06
02
1'
14
07
#112500
1!
12
0'
08
15
0.
1<
0:
0;
19
11
00
1%
0&
#125000
1$
0!
16
02
1'
17
#137500
1!
12
0'
18
0<
1:
1;
09
01
10
0%
1&
#150000
1#
0$
0!
1/
06
02
1'
07
#162500
1!
12
0'
08
1.
1<
0:
11
00
1%
0&
#175000
1$
0!
16
02
1'
17
#187500
1!
12
0'
18
19
#200000
0"
0#
0$
0!
03
0/
06
02
1'
04
07
#212500
1!
12
0'
08
05
0.
1:
0;
09
10
1&
#225000
1$
0!
16
02
1'
17
#237500
1!
12
0'
18
0<
0:
19
01
00
0%
0&
#250000
1#
0$
0!
1/
06
02
1'
07
#262500
1!
12
0'
08
1.
1:
10
1&
#275000
1$
0!
16
02
1'
17
#287500
1!
12
0'
18
1;
09
#300000
1"
0#
0$
0!
13
0/
06
02
1'
14
07
#312500
1!
12
0'
08
15
0.
1<
0:
0;
19
11
00
1%
0&
#325000
1$
0!
16
02
1'
17
#337500
1!
12
0'
18
0<
1:
1;
09
01
10
0%
1&
#350000
1#
0$
0!
1/
06
02
1'
07
#362500
1!
12
0'
08
1.
1<
0:
11
00
1%
0&
#375000
1$
0!
16
02
1'
17
#387500
1!
12
0'
18
19
#400000
0"
0#
0$
0!
03
0/
06
02
1'
04
07
#412500
1!
12
0'
08
05
0.
1:
0;
09
10
1&
#425000
1$
0!
16
02
1'
17
#437500
1!
12
0'
18
0<
0:
19
01
00
0%
0&
#450000
1#
0$
0!
1/
06
02
1'
07
#462500
1!
12
0'
08
1.
1:
10
1&
#475000
1$
0!
16
02
1'
17
#487500
1!
12
0'
18
1;
09
#500000
1"
0#
0$
0!
13
0/
06
02
1'
14
07
#512500
1!
12
0'
08
15
0.
1<
0:
0;
19
11
00
1%
0&
#525000
1$
0!
16
02
1'
17
#537500
1!
12
0'
18
0<
1:
1;
09
01
10
0%
1&
#550000
1#
0$
0!
1/
06
02
1'
07
#562500
1!
12
0'
08
1.
1<
0:
11
00
1%
0&
#575000
1$
0!
16
02
1'
17
#587500
1!
12
0'
18
19
#600000
0"
0#
0$
0!
03
0/
06
02
1'
04
07
#612500
1!
12
0'
08
05
0.
1:
0;
09
10
1&
#625000
1$
0!
16
02
1'
17
#637500
1!
12
0'
18
0<
0:
19
01
00
0%
0&
#650000
1#
0$
0!
1/
06
02
1'
07
#662500
1!
12
0'
08
1.
1:
10
1&
#675000
1$
0!
16
02
1'
17
#687500
1!
12
0'
18
1;
09
#700000
1"
0#
0$
0!
13
0/
06
02
1'
14
07
#712500
1!
12
0'
08
15
0.
1<
0:
0;
19
11
00
1%
0&
#725000
1$
0!
16
02
1'
17
#737500
1!
12
0'
18
0<
1:
1;
09
01
10
0%
1&
#750000
1#
0$
0!
1/
06
02
1'
07
#762500
1!
12
0'
08
1.
1<
0:
11
00
1%
0&
#775000
1$
0!
16
02
1'
17
#787500
1!
12
0'
18
19
#800000
0"
0#
0$
0!
03
0/
06
02
1'
04
07
#812500
1!
12
0'
08
05
0.
1:
0;
09
10
1&
#825000
1$
0!
16
02
1'
17
#837500
1!
12
0'
18
0<
0:
19
01
00
0%
0&
#850000
1#
0$
0!
1/
06
02
1'
07
#862500
1!
12
0'
08
1.
1:
10
1&
#875000
1$
0!
16
02
1'
17
#887500
1!
12
0'
18
1;
09
#900000
1"
0#
0$
0!
13
0/
06
02
1'
14
07
#912500
1!
12
0'
08
15
0.
1<
0:
0;
19
11
00
1%
0&
#925000
1$
0!
16
02
1'
17
#937500
1!
12
0'
18
0<
1:
1;
09
01
10
0%
1&
#950000
1#
0$
0!
1/
06
02
1'
07
#962500
1!
12
0'
08
1.
1<
0:
11
00
1%
0&
#975000
1$
0!
16
02
1'
17
#987500
1!
12
0'
18
19
